{
  "best_metric": null,
  "best_model_checkpoint": null,
  "epoch": 1.7142857142857144,
  "eval_steps": 500,
  "global_step": 3000,
  "is_hyper_param_search": false,
  "is_local_process_zero": true,
  "is_world_process_zero": true,
  "log_history": [
    {
      "epoch": 0.005714285714285714,
      "grad_norm": 26.125,
      "learning_rate": 0.0004983333333333334,
      "loss": 4.3312,
      "step": 10
    },
    {
      "epoch": 0.011428571428571429,
      "grad_norm": 5.71875,
      "learning_rate": 0.0004966666666666666,
      "loss": 3.7563,
      "step": 20
    },
    {
      "epoch": 0.017142857142857144,
      "grad_norm": 2.1875,
      "learning_rate": 0.000495,
      "loss": 3.6391,
      "step": 30
    },
    {
      "epoch": 0.022857142857142857,
      "grad_norm": 5.28125,
      "learning_rate": 0.0004933333333333334,
      "loss": 3.4766,
      "step": 40
    },
    {
      "epoch": 0.02857142857142857,
      "grad_norm": 5.40625,
      "learning_rate": 0.0004916666666666666,
      "loss": 3.2078,
      "step": 50
    },
    {
      "epoch": 0.03428571428571429,
      "grad_norm": 3.265625,
      "learning_rate": 0.00049,
      "loss": 3.4062,
      "step": 60
    },
    {
      "epoch": 0.04,
      "grad_norm": 3.171875,
      "learning_rate": 0.0004883333333333333,
      "loss": 2.8133,
      "step": 70
    },
    {
      "epoch": 0.045714285714285714,
      "grad_norm": 5.875,
      "learning_rate": 0.0004866666666666667,
      "loss": 2.9813,
      "step": 80
    },
    {
      "epoch": 0.05142857142857143,
      "grad_norm": 2.296875,
      "learning_rate": 0.00048499999999999997,
      "loss": 3.0828,
      "step": 90
    },
    {
      "epoch": 0.05714285714285714,
      "grad_norm": 5.875,
      "learning_rate": 0.00048333333333333334,
      "loss": 2.8898,
      "step": 100
    },
    {
      "epoch": 0.06285714285714286,
      "grad_norm": 6.125,
      "learning_rate": 0.0004816666666666667,
      "loss": 2.8219,
      "step": 110
    },
    {
      "epoch": 0.06857142857142857,
      "grad_norm": 3.140625,
      "learning_rate": 0.00048,
      "loss": 2.9359,
      "step": 120
    },
    {
      "epoch": 0.07428571428571429,
      "grad_norm": 13.4375,
      "learning_rate": 0.0004783333333333333,
      "loss": 2.8781,
      "step": 130
    },
    {
      "epoch": 0.08,
      "grad_norm": 2.90625,
      "learning_rate": 0.0004766666666666667,
      "loss": 3.5688,
      "step": 140
    },
    {
      "epoch": 0.08571428571428572,
      "grad_norm": 3.703125,
      "learning_rate": 0.000475,
      "loss": 2.7219,
      "step": 150
    },
    {
      "epoch": 0.09142857142857143,
      "grad_norm": 2.234375,
      "learning_rate": 0.00047333333333333336,
      "loss": 3.1273,
      "step": 160
    },
    {
      "epoch": 0.09714285714285714,
      "grad_norm": 3.9375,
      "learning_rate": 0.0004716666666666667,
      "loss": 2.7812,
      "step": 170
    },
    {
      "epoch": 0.10285714285714286,
      "grad_norm": 4.03125,
      "learning_rate": 0.00047,
      "loss": 2.8961,
      "step": 180
    },
    {
      "epoch": 0.10857142857142857,
      "grad_norm": 3.46875,
      "learning_rate": 0.00046833333333333335,
      "loss": 2.7984,
      "step": 190
    },
    {
      "epoch": 0.11428571428571428,
      "grad_norm": 4.03125,
      "learning_rate": 0.00046666666666666666,
      "loss": 3.0266,
      "step": 200
    },
    {
      "epoch": 0.12,
      "grad_norm": 4.6875,
      "learning_rate": 0.000465,
      "loss": 3.2656,
      "step": 210
    },
    {
      "epoch": 0.12571428571428572,
      "grad_norm": 3.671875,
      "learning_rate": 0.00046333333333333334,
      "loss": 2.9141,
      "step": 220
    },
    {
      "epoch": 0.13142857142857142,
      "grad_norm": 3.484375,
      "learning_rate": 0.0004616666666666667,
      "loss": 2.9344,
      "step": 230
    },
    {
      "epoch": 0.13714285714285715,
      "grad_norm": 3.078125,
      "learning_rate": 0.00046,
      "loss": 3.175,
      "step": 240
    },
    {
      "epoch": 0.14285714285714285,
      "grad_norm": 1.859375,
      "learning_rate": 0.0004583333333333333,
      "loss": 3.25,
      "step": 250
    },
    {
      "epoch": 0.14857142857142858,
      "grad_norm": 7.0,
      "learning_rate": 0.0004566666666666667,
      "loss": 3.3109,
      "step": 260
    },
    {
      "epoch": 0.15428571428571428,
      "grad_norm": 10.625,
      "learning_rate": 0.000455,
      "loss": 2.8258,
      "step": 270
    },
    {
      "epoch": 0.16,
      "grad_norm": 5.96875,
      "learning_rate": 0.0004533333333333333,
      "loss": 2.6652,
      "step": 280
    },
    {
      "epoch": 0.1657142857142857,
      "grad_norm": 9.75,
      "learning_rate": 0.0004516666666666667,
      "loss": 3.1094,
      "step": 290
    },
    {
      "epoch": 0.17142857142857143,
      "grad_norm": 8.1875,
      "learning_rate": 0.00045000000000000004,
      "loss": 2.752,
      "step": 300
    },
    {
      "epoch": 0.17714285714285713,
      "grad_norm": 3.546875,
      "learning_rate": 0.0004483333333333333,
      "loss": 2.8453,
      "step": 310
    },
    {
      "epoch": 0.18285714285714286,
      "grad_norm": 5.0625,
      "learning_rate": 0.00044666666666666666,
      "loss": 3.0,
      "step": 320
    },
    {
      "epoch": 0.18857142857142858,
      "grad_norm": 5.15625,
      "learning_rate": 0.00044500000000000003,
      "loss": 2.9844,
      "step": 330
    },
    {
      "epoch": 0.19428571428571428,
      "grad_norm": 3.9375,
      "learning_rate": 0.00044333333333333334,
      "loss": 3.0063,
      "step": 340
    },
    {
      "epoch": 0.2,
      "grad_norm": 6.96875,
      "learning_rate": 0.00044166666666666665,
      "loss": 3.1195,
      "step": 350
    },
    {
      "epoch": 0.2057142857142857,
      "grad_norm": 3.796875,
      "learning_rate": 0.00044,
      "loss": 3.0109,
      "step": 360
    },
    {
      "epoch": 0.21142857142857144,
      "grad_norm": 2.828125,
      "learning_rate": 0.0004383333333333334,
      "loss": 3.0656,
      "step": 370
    },
    {
      "epoch": 0.21714285714285714,
      "grad_norm": 3.390625,
      "learning_rate": 0.00043666666666666664,
      "loss": 2.7996,
      "step": 380
    },
    {
      "epoch": 0.22285714285714286,
      "grad_norm": 6.8125,
      "learning_rate": 0.000435,
      "loss": 3.1375,
      "step": 390
    },
    {
      "epoch": 0.22857142857142856,
      "grad_norm": 3.421875,
      "learning_rate": 0.00043333333333333337,
      "loss": 2.8656,
      "step": 400
    },
    {
      "epoch": 0.2342857142857143,
      "grad_norm": 7.0625,
      "learning_rate": 0.0004316666666666667,
      "loss": 3.1828,
      "step": 410
    },
    {
      "epoch": 0.24,
      "grad_norm": 6.75,
      "learning_rate": 0.00043,
      "loss": 2.9363,
      "step": 420
    },
    {
      "epoch": 0.24571428571428572,
      "grad_norm": 2.078125,
      "learning_rate": 0.00042833333333333335,
      "loss": 3.025,
      "step": 430
    },
    {
      "epoch": 0.25142857142857145,
      "grad_norm": 4.53125,
      "learning_rate": 0.0004266666666666667,
      "loss": 3.007,
      "step": 440
    },
    {
      "epoch": 0.2571428571428571,
      "grad_norm": 4.1875,
      "learning_rate": 0.000425,
      "loss": 3.0453,
      "step": 450
    },
    {
      "epoch": 0.26285714285714284,
      "grad_norm": 8.9375,
      "learning_rate": 0.00042333333333333334,
      "loss": 2.6996,
      "step": 460
    },
    {
      "epoch": 0.26857142857142857,
      "grad_norm": 4.71875,
      "learning_rate": 0.0004216666666666667,
      "loss": 2.6844,
      "step": 470
    },
    {
      "epoch": 0.2742857142857143,
      "grad_norm": 3.140625,
      "learning_rate": 0.00042,
      "loss": 3.0109,
      "step": 480
    },
    {
      "epoch": 0.28,
      "grad_norm": 8.4375,
      "learning_rate": 0.00041833333333333333,
      "loss": 2.5648,
      "step": 490
    },
    {
      "epoch": 0.2857142857142857,
      "grad_norm": 3.109375,
      "learning_rate": 0.0004166666666666667,
      "loss": 3.0531,
      "step": 500
    },
    {
      "epoch": 0.2857142857142857,
      "eval_bleu-4": 0.02319141577689864,
      "eval_rouge-1": 40.865136,
      "eval_rouge-2": 28.886636000000003,
      "eval_rouge-l": 9.490105999999999,
      "eval_runtime": 2761.8186,
      "eval_samples_per_second": 0.018,
      "eval_steps_per_second": 0.009,
      "step": 500
    },
    {
      "epoch": 0.2914285714285714,
      "grad_norm": 6.25,
      "learning_rate": 0.000415,
      "loss": 2.9117,
      "step": 510
    },
    {
      "epoch": 0.29714285714285715,
      "grad_norm": 3.625,
      "learning_rate": 0.0004133333333333333,
      "loss": 2.8852,
      "step": 520
    },
    {
      "epoch": 0.3028571428571429,
      "grad_norm": 11.75,
      "learning_rate": 0.0004116666666666667,
      "loss": 2.8563,
      "step": 530
    },
    {
      "epoch": 0.30857142857142855,
      "grad_norm": 2.328125,
      "learning_rate": 0.00041,
      "loss": 2.7719,
      "step": 540
    },
    {
      "epoch": 0.3142857142857143,
      "grad_norm": 4.65625,
      "learning_rate": 0.00040833333333333336,
      "loss": 2.7586,
      "step": 550
    },
    {
      "epoch": 0.32,
      "grad_norm": 4.34375,
      "learning_rate": 0.00040666666666666667,
      "loss": 2.6836,
      "step": 560
    },
    {
      "epoch": 0.32571428571428573,
      "grad_norm": 5.9375,
      "learning_rate": 0.00040500000000000003,
      "loss": 3.2375,
      "step": 570
    },
    {
      "epoch": 0.3314285714285714,
      "grad_norm": 9.4375,
      "learning_rate": 0.00040333333333333334,
      "loss": 2.4703,
      "step": 580
    },
    {
      "epoch": 0.33714285714285713,
      "grad_norm": 9.375,
      "learning_rate": 0.00040166666666666665,
      "loss": 3.1176,
      "step": 590
    },
    {
      "epoch": 0.34285714285714286,
      "grad_norm": 6.53125,
      "learning_rate": 0.0004,
      "loss": 3.2563,
      "step": 600
    },
    {
      "epoch": 0.3485714285714286,
      "grad_norm": 4.78125,
      "learning_rate": 0.00039833333333333333,
      "loss": 2.7297,
      "step": 610
    },
    {
      "epoch": 0.35428571428571426,
      "grad_norm": 9.5625,
      "learning_rate": 0.0003966666666666667,
      "loss": 2.6984,
      "step": 620
    },
    {
      "epoch": 0.36,
      "grad_norm": 4.8125,
      "learning_rate": 0.000395,
      "loss": 2.9078,
      "step": 630
    },
    {
      "epoch": 0.3657142857142857,
      "grad_norm": 6.53125,
      "learning_rate": 0.0003933333333333333,
      "loss": 2.4805,
      "step": 640
    },
    {
      "epoch": 0.37142857142857144,
      "grad_norm": 6.625,
      "learning_rate": 0.0003916666666666667,
      "loss": 2.9648,
      "step": 650
    },
    {
      "epoch": 0.37714285714285717,
      "grad_norm": 5.1875,
      "learning_rate": 0.00039000000000000005,
      "loss": 2.7836,
      "step": 660
    },
    {
      "epoch": 0.38285714285714284,
      "grad_norm": 8.1875,
      "learning_rate": 0.0003883333333333333,
      "loss": 2.9109,
      "step": 670
    },
    {
      "epoch": 0.38857142857142857,
      "grad_norm": 2.375,
      "learning_rate": 0.00038666666666666667,
      "loss": 2.9656,
      "step": 680
    },
    {
      "epoch": 0.3942857142857143,
      "grad_norm": 7.40625,
      "learning_rate": 0.00038500000000000003,
      "loss": 3.1125,
      "step": 690
    },
    {
      "epoch": 0.4,
      "grad_norm": 7.59375,
      "learning_rate": 0.00038333333333333334,
      "loss": 3.1156,
      "step": 700
    },
    {
      "epoch": 0.4057142857142857,
      "grad_norm": 1.6796875,
      "learning_rate": 0.00038166666666666666,
      "loss": 3.1031,
      "step": 710
    },
    {
      "epoch": 0.4114285714285714,
      "grad_norm": 8.4375,
      "learning_rate": 0.00038,
      "loss": 3.3102,
      "step": 720
    },
    {
      "epoch": 0.41714285714285715,
      "grad_norm": 3.015625,
      "learning_rate": 0.0003783333333333334,
      "loss": 3.0117,
      "step": 730
    },
    {
      "epoch": 0.4228571428571429,
      "grad_norm": 4.75,
      "learning_rate": 0.00037666666666666664,
      "loss": 2.5344,
      "step": 740
    },
    {
      "epoch": 0.42857142857142855,
      "grad_norm": 6.25,
      "learning_rate": 0.000375,
      "loss": 2.6625,
      "step": 750
    },
    {
      "epoch": 0.4342857142857143,
      "grad_norm": 2.875,
      "learning_rate": 0.0003733333333333334,
      "loss": 2.9297,
      "step": 760
    },
    {
      "epoch": 0.44,
      "grad_norm": 3.15625,
      "learning_rate": 0.00037166666666666663,
      "loss": 2.6977,
      "step": 770
    },
    {
      "epoch": 0.44571428571428573,
      "grad_norm": 3.796875,
      "learning_rate": 0.00037,
      "loss": 2.55,
      "step": 780
    },
    {
      "epoch": 0.4514285714285714,
      "grad_norm": 4.15625,
      "learning_rate": 0.00036833333333333336,
      "loss": 2.95,
      "step": 790
    },
    {
      "epoch": 0.45714285714285713,
      "grad_norm": 2.359375,
      "learning_rate": 0.00036666666666666667,
      "loss": 3.0633,
      "step": 800
    },
    {
      "epoch": 0.46285714285714286,
      "grad_norm": 5.59375,
      "learning_rate": 0.000365,
      "loss": 3.2703,
      "step": 810
    },
    {
      "epoch": 0.4685714285714286,
      "grad_norm": 14.1875,
      "learning_rate": 0.00036333333333333335,
      "loss": 2.6422,
      "step": 820
    },
    {
      "epoch": 0.4742857142857143,
      "grad_norm": 5.96875,
      "learning_rate": 0.0003616666666666667,
      "loss": 2.6316,
      "step": 830
    },
    {
      "epoch": 0.48,
      "grad_norm": 2.703125,
      "learning_rate": 0.00035999999999999997,
      "loss": 2.7062,
      "step": 840
    },
    {
      "epoch": 0.4857142857142857,
      "grad_norm": 8.375,
      "learning_rate": 0.00035833333333333333,
      "loss": 2.9516,
      "step": 850
    },
    {
      "epoch": 0.49142857142857144,
      "grad_norm": 6.125,
      "learning_rate": 0.0003566666666666667,
      "loss": 2.5883,
      "step": 860
    },
    {
      "epoch": 0.49714285714285716,
      "grad_norm": 3.796875,
      "learning_rate": 0.000355,
      "loss": 2.7422,
      "step": 870
    },
    {
      "epoch": 0.5028571428571429,
      "grad_norm": 3.140625,
      "learning_rate": 0.0003533333333333333,
      "loss": 3.0438,
      "step": 880
    },
    {
      "epoch": 0.5085714285714286,
      "grad_norm": 3.359375,
      "learning_rate": 0.0003516666666666667,
      "loss": 2.4699,
      "step": 890
    },
    {
      "epoch": 0.5142857142857142,
      "grad_norm": 9.125,
      "learning_rate": 0.00035,
      "loss": 2.8422,
      "step": 900
    },
    {
      "epoch": 0.52,
      "grad_norm": 5.34375,
      "learning_rate": 0.00034833333333333336,
      "loss": 2.7094,
      "step": 910
    },
    {
      "epoch": 0.5257142857142857,
      "grad_norm": 2.671875,
      "learning_rate": 0.00034666666666666667,
      "loss": 2.868,
      "step": 920
    },
    {
      "epoch": 0.5314285714285715,
      "grad_norm": 2.28125,
      "learning_rate": 0.000345,
      "loss": 2.5863,
      "step": 930
    },
    {
      "epoch": 0.5371428571428571,
      "grad_norm": 25.0,
      "learning_rate": 0.00034333333333333335,
      "loss": 3.0758,
      "step": 940
    },
    {
      "epoch": 0.5428571428571428,
      "grad_norm": 4.9375,
      "learning_rate": 0.00034166666666666666,
      "loss": 2.693,
      "step": 950
    },
    {
      "epoch": 0.5485714285714286,
      "grad_norm": 6.84375,
      "learning_rate": 0.00034,
      "loss": 3.0812,
      "step": 960
    },
    {
      "epoch": 0.5542857142857143,
      "grad_norm": 5.875,
      "learning_rate": 0.00033833333333333334,
      "loss": 2.7852,
      "step": 970
    },
    {
      "epoch": 0.56,
      "grad_norm": 4.375,
      "learning_rate": 0.0003366666666666667,
      "loss": 2.7125,
      "step": 980
    },
    {
      "epoch": 0.5657142857142857,
      "grad_norm": 2.46875,
      "learning_rate": 0.000335,
      "loss": 2.7922,
      "step": 990
    },
    {
      "epoch": 0.5714285714285714,
      "grad_norm": 2.9375,
      "learning_rate": 0.0003333333333333333,
      "loss": 2.8961,
      "step": 1000
    },
    {
      "epoch": 0.5714285714285714,
      "eval_bleu-4": 0.024430505087830432,
      "eval_rouge-1": 41.801320000000004,
      "eval_rouge-2": 29.783513999999997,
      "eval_rouge-l": 9.97798,
      "eval_runtime": 2760.7924,
      "eval_samples_per_second": 0.018,
      "eval_steps_per_second": 0.009,
      "step": 1000
    },
    {
      "epoch": 0.5771428571428572,
      "grad_norm": 9.0625,
      "learning_rate": 0.0003316666666666667,
      "loss": 2.4969,
      "step": 1010
    },
    {
      "epoch": 0.5828571428571429,
      "grad_norm": 12.125,
      "learning_rate": 0.00033,
      "loss": 3.1148,
      "step": 1020
    },
    {
      "epoch": 0.5885714285714285,
      "grad_norm": 11.875,
      "learning_rate": 0.0003283333333333333,
      "loss": 2.8117,
      "step": 1030
    },
    {
      "epoch": 0.5942857142857143,
      "grad_norm": 3.34375,
      "learning_rate": 0.0003266666666666667,
      "loss": 2.7617,
      "step": 1040
    },
    {
      "epoch": 0.6,
      "grad_norm": 2.75,
      "learning_rate": 0.00032500000000000004,
      "loss": 2.8813,
      "step": 1050
    },
    {
      "epoch": 0.6057142857142858,
      "grad_norm": 7.84375,
      "learning_rate": 0.0003233333333333333,
      "loss": 3.1531,
      "step": 1060
    },
    {
      "epoch": 0.6114285714285714,
      "grad_norm": 9.3125,
      "learning_rate": 0.00032166666666666666,
      "loss": 3.0359,
      "step": 1070
    },
    {
      "epoch": 0.6171428571428571,
      "grad_norm": 3.9375,
      "learning_rate": 0.00032,
      "loss": 2.5727,
      "step": 1080
    },
    {
      "epoch": 0.6228571428571429,
      "grad_norm": 4.53125,
      "learning_rate": 0.00031833333333333334,
      "loss": 3.0219,
      "step": 1090
    },
    {
      "epoch": 0.6285714285714286,
      "grad_norm": 12.125,
      "learning_rate": 0.00031666666666666665,
      "loss": 2.6211,
      "step": 1100
    },
    {
      "epoch": 0.6342857142857142,
      "grad_norm": 4.71875,
      "learning_rate": 0.000315,
      "loss": 2.4453,
      "step": 1110
    },
    {
      "epoch": 0.64,
      "grad_norm": 5.03125,
      "learning_rate": 0.0003133333333333334,
      "loss": 2.8883,
      "step": 1120
    },
    {
      "epoch": 0.6457142857142857,
      "grad_norm": 3.5,
      "learning_rate": 0.00031166666666666663,
      "loss": 3.0422,
      "step": 1130
    },
    {
      "epoch": 0.6514285714285715,
      "grad_norm": 10.1875,
      "learning_rate": 0.00031,
      "loss": 2.7281,
      "step": 1140
    },
    {
      "epoch": 0.6571428571428571,
      "grad_norm": 3.40625,
      "learning_rate": 0.00030833333333333337,
      "loss": 2.3877,
      "step": 1150
    },
    {
      "epoch": 0.6628571428571428,
      "grad_norm": 6.0625,
      "learning_rate": 0.0003066666666666667,
      "loss": 2.426,
      "step": 1160
    },
    {
      "epoch": 0.6685714285714286,
      "grad_norm": 4.0625,
      "learning_rate": 0.000305,
      "loss": 3.0063,
      "step": 1170
    },
    {
      "epoch": 0.6742857142857143,
      "grad_norm": 2.375,
      "learning_rate": 0.00030333333333333335,
      "loss": 2.7148,
      "step": 1180
    },
    {
      "epoch": 0.68,
      "grad_norm": 7.9375,
      "learning_rate": 0.0003016666666666667,
      "loss": 2.5352,
      "step": 1190
    },
    {
      "epoch": 0.6857142857142857,
      "grad_norm": 2.03125,
      "learning_rate": 0.0003,
      "loss": 3.0375,
      "step": 1200
    },
    {
      "epoch": 0.6914285714285714,
      "grad_norm": 5.28125,
      "learning_rate": 0.00029833333333333334,
      "loss": 3.0797,
      "step": 1210
    },
    {
      "epoch": 0.6971428571428572,
      "grad_norm": 2.625,
      "learning_rate": 0.0002966666666666667,
      "loss": 2.8563,
      "step": 1220
    },
    {
      "epoch": 0.7028571428571428,
      "grad_norm": 8.5,
      "learning_rate": 0.000295,
      "loss": 2.8008,
      "step": 1230
    },
    {
      "epoch": 0.7085714285714285,
      "grad_norm": 5.34375,
      "learning_rate": 0.0002933333333333333,
      "loss": 2.8508,
      "step": 1240
    },
    {
      "epoch": 0.7142857142857143,
      "grad_norm": 1.640625,
      "learning_rate": 0.0002916666666666667,
      "loss": 2.6797,
      "step": 1250
    },
    {
      "epoch": 0.72,
      "grad_norm": 5.09375,
      "learning_rate": 0.00029,
      "loss": 2.6395,
      "step": 1260
    },
    {
      "epoch": 0.7257142857142858,
      "grad_norm": 2.84375,
      "learning_rate": 0.0002883333333333333,
      "loss": 2.7984,
      "step": 1270
    },
    {
      "epoch": 0.7314285714285714,
      "grad_norm": 6.96875,
      "learning_rate": 0.0002866666666666667,
      "loss": 2.8492,
      "step": 1280
    },
    {
      "epoch": 0.7371428571428571,
      "grad_norm": 3.375,
      "learning_rate": 0.000285,
      "loss": 2.7004,
      "step": 1290
    },
    {
      "epoch": 0.7428571428571429,
      "grad_norm": 3.8125,
      "learning_rate": 0.00028333333333333335,
      "loss": 3.5094,
      "step": 1300
    },
    {
      "epoch": 0.7485714285714286,
      "grad_norm": 4.5625,
      "learning_rate": 0.00028166666666666666,
      "loss": 2.9102,
      "step": 1310
    },
    {
      "epoch": 0.7542857142857143,
      "grad_norm": 11.0,
      "learning_rate": 0.00028000000000000003,
      "loss": 2.8102,
      "step": 1320
    },
    {
      "epoch": 0.76,
      "grad_norm": 2.65625,
      "learning_rate": 0.00027833333333333334,
      "loss": 2.4367,
      "step": 1330
    },
    {
      "epoch": 0.7657142857142857,
      "grad_norm": 2.796875,
      "learning_rate": 0.00027666666666666665,
      "loss": 2.7859,
      "step": 1340
    },
    {
      "epoch": 0.7714285714285715,
      "grad_norm": 9.125,
      "learning_rate": 0.000275,
      "loss": 2.6258,
      "step": 1350
    },
    {
      "epoch": 0.7771428571428571,
      "grad_norm": 2.265625,
      "learning_rate": 0.00027333333333333333,
      "loss": 3.0594,
      "step": 1360
    },
    {
      "epoch": 0.7828571428571428,
      "grad_norm": 1.8671875,
      "learning_rate": 0.0002716666666666667,
      "loss": 3.0359,
      "step": 1370
    },
    {
      "epoch": 0.7885714285714286,
      "grad_norm": 3.375,
      "learning_rate": 0.00027,
      "loss": 2.6781,
      "step": 1380
    },
    {
      "epoch": 0.7942857142857143,
      "grad_norm": 3.71875,
      "learning_rate": 0.0002683333333333333,
      "loss": 2.6586,
      "step": 1390
    },
    {
      "epoch": 0.8,
      "grad_norm": 2.9375,
      "learning_rate": 0.0002666666666666667,
      "loss": 2.8984,
      "step": 1400
    },
    {
      "epoch": 0.8057142857142857,
      "grad_norm": 4.75,
      "learning_rate": 0.00026500000000000004,
      "loss": 2.9172,
      "step": 1410
    },
    {
      "epoch": 0.8114285714285714,
      "grad_norm": 6.625,
      "learning_rate": 0.0002633333333333333,
      "loss": 2.8797,
      "step": 1420
    },
    {
      "epoch": 0.8171428571428572,
      "grad_norm": 3.828125,
      "learning_rate": 0.00026166666666666667,
      "loss": 2.6559,
      "step": 1430
    },
    {
      "epoch": 0.8228571428571428,
      "grad_norm": 2.34375,
      "learning_rate": 0.00026000000000000003,
      "loss": 2.777,
      "step": 1440
    },
    {
      "epoch": 0.8285714285714286,
      "grad_norm": 2.84375,
      "learning_rate": 0.00025833333333333334,
      "loss": 2.8713,
      "step": 1450
    },
    {
      "epoch": 0.8342857142857143,
      "grad_norm": 7.96875,
      "learning_rate": 0.00025666666666666665,
      "loss": 2.5016,
      "step": 1460
    },
    {
      "epoch": 0.84,
      "grad_norm": 6.25,
      "learning_rate": 0.000255,
      "loss": 2.4769,
      "step": 1470
    },
    {
      "epoch": 0.8457142857142858,
      "grad_norm": 1.921875,
      "learning_rate": 0.0002533333333333334,
      "loss": 2.4387,
      "step": 1480
    },
    {
      "epoch": 0.8514285714285714,
      "grad_norm": 9.3125,
      "learning_rate": 0.00025166666666666664,
      "loss": 2.7539,
      "step": 1490
    },
    {
      "epoch": 0.8571428571428571,
      "grad_norm": 2.703125,
      "learning_rate": 0.00025,
      "loss": 2.9,
      "step": 1500
    },
    {
      "epoch": 0.8571428571428571,
      "eval_bleu-4": 0.027833438841998546,
      "eval_rouge-1": 40.233084,
      "eval_rouge-2": 29.359413999999997,
      "eval_rouge-l": 10.453564000000002,
      "eval_runtime": 2760.0812,
      "eval_samples_per_second": 0.018,
      "eval_steps_per_second": 0.009,
      "step": 1500
    },
    {
      "epoch": 0.8628571428571429,
      "grad_norm": 7.03125,
      "learning_rate": 0.0002483333333333333,
      "loss": 2.732,
      "step": 1510
    },
    {
      "epoch": 0.8685714285714285,
      "grad_norm": 3.21875,
      "learning_rate": 0.0002466666666666667,
      "loss": 2.75,
      "step": 1520
    },
    {
      "epoch": 0.8742857142857143,
      "grad_norm": 4.875,
      "learning_rate": 0.000245,
      "loss": 2.9109,
      "step": 1530
    },
    {
      "epoch": 0.88,
      "grad_norm": 11.375,
      "learning_rate": 0.00024333333333333336,
      "loss": 2.6789,
      "step": 1540
    },
    {
      "epoch": 0.8857142857142857,
      "grad_norm": 5.09375,
      "learning_rate": 0.00024166666666666667,
      "loss": 3.0148,
      "step": 1550
    },
    {
      "epoch": 0.8914285714285715,
      "grad_norm": 3.203125,
      "learning_rate": 0.00024,
      "loss": 2.6812,
      "step": 1560
    },
    {
      "epoch": 0.8971428571428571,
      "grad_norm": 4.9375,
      "learning_rate": 0.00023833333333333334,
      "loss": 3.0109,
      "step": 1570
    },
    {
      "epoch": 0.9028571428571428,
      "grad_norm": 1.9609375,
      "learning_rate": 0.00023666666666666668,
      "loss": 2.6727,
      "step": 1580
    },
    {
      "epoch": 0.9085714285714286,
      "grad_norm": 4.875,
      "learning_rate": 0.000235,
      "loss": 2.6031,
      "step": 1590
    },
    {
      "epoch": 0.9142857142857143,
      "grad_norm": 4.625,
      "learning_rate": 0.00023333333333333333,
      "loss": 2.9641,
      "step": 1600
    },
    {
      "epoch": 0.92,
      "grad_norm": 6.625,
      "learning_rate": 0.00023166666666666667,
      "loss": 2.8086,
      "step": 1610
    },
    {
      "epoch": 0.9257142857142857,
      "grad_norm": 4.65625,
      "learning_rate": 0.00023,
      "loss": 2.625,
      "step": 1620
    },
    {
      "epoch": 0.9314285714285714,
      "grad_norm": 2.125,
      "learning_rate": 0.00022833333333333334,
      "loss": 3.0391,
      "step": 1630
    },
    {
      "epoch": 0.9371428571428572,
      "grad_norm": 2.34375,
      "learning_rate": 0.00022666666666666666,
      "loss": 3.0422,
      "step": 1640
    },
    {
      "epoch": 0.9428571428571428,
      "grad_norm": 1.375,
      "learning_rate": 0.00022500000000000002,
      "loss": 2.9672,
      "step": 1650
    },
    {
      "epoch": 0.9485714285714286,
      "grad_norm": 2.078125,
      "learning_rate": 0.00022333333333333333,
      "loss": 2.8719,
      "step": 1660
    },
    {
      "epoch": 0.9542857142857143,
      "grad_norm": 1.875,
      "learning_rate": 0.00022166666666666667,
      "loss": 2.6859,
      "step": 1670
    },
    {
      "epoch": 0.96,
      "grad_norm": 3.953125,
      "learning_rate": 0.00022,
      "loss": 2.3875,
      "step": 1680
    },
    {
      "epoch": 0.9657142857142857,
      "grad_norm": 3.25,
      "learning_rate": 0.00021833333333333332,
      "loss": 2.625,
      "step": 1690
    },
    {
      "epoch": 0.9714285714285714,
      "grad_norm": 6.6875,
      "learning_rate": 0.00021666666666666668,
      "loss": 3.1594,
      "step": 1700
    },
    {
      "epoch": 0.9771428571428571,
      "grad_norm": 5.71875,
      "learning_rate": 0.000215,
      "loss": 2.5293,
      "step": 1710
    },
    {
      "epoch": 0.9828571428571429,
      "grad_norm": 3.6875,
      "learning_rate": 0.00021333333333333336,
      "loss": 2.9422,
      "step": 1720
    },
    {
      "epoch": 0.9885714285714285,
      "grad_norm": 5.46875,
      "learning_rate": 0.00021166666666666667,
      "loss": 2.7887,
      "step": 1730
    },
    {
      "epoch": 0.9942857142857143,
      "grad_norm": 7.4375,
      "learning_rate": 0.00021,
      "loss": 3.0289,
      "step": 1740
    },
    {
      "epoch": 1.0,
      "grad_norm": 2.703125,
      "learning_rate": 0.00020833333333333335,
      "loss": 2.8031,
      "step": 1750
    },
    {
      "epoch": 1.0057142857142858,
      "grad_norm": 3.265625,
      "learning_rate": 0.00020666666666666666,
      "loss": 2.5625,
      "step": 1760
    },
    {
      "epoch": 1.0114285714285713,
      "grad_norm": 6.5625,
      "learning_rate": 0.000205,
      "loss": 2.3969,
      "step": 1770
    },
    {
      "epoch": 1.0171428571428571,
      "grad_norm": 2.84375,
      "learning_rate": 0.00020333333333333333,
      "loss": 2.7977,
      "step": 1780
    },
    {
      "epoch": 1.022857142857143,
      "grad_norm": 3.15625,
      "learning_rate": 0.00020166666666666667,
      "loss": 2.4039,
      "step": 1790
    },
    {
      "epoch": 1.0285714285714285,
      "grad_norm": 2.65625,
      "learning_rate": 0.0002,
      "loss": 2.5273,
      "step": 1800
    },
    {
      "epoch": 1.0342857142857143,
      "grad_norm": 4.5625,
      "learning_rate": 0.00019833333333333335,
      "loss": 2.4555,
      "step": 1810
    },
    {
      "epoch": 1.04,
      "grad_norm": 2.515625,
      "learning_rate": 0.00019666666666666666,
      "loss": 2.8227,
      "step": 1820
    },
    {
      "epoch": 1.0457142857142858,
      "grad_norm": 8.125,
      "learning_rate": 0.00019500000000000002,
      "loss": 2.8898,
      "step": 1830
    },
    {
      "epoch": 1.0514285714285714,
      "grad_norm": 4.65625,
      "learning_rate": 0.00019333333333333333,
      "loss": 2.2977,
      "step": 1840
    },
    {
      "epoch": 1.0571428571428572,
      "grad_norm": 2.875,
      "learning_rate": 0.00019166666666666667,
      "loss": 2.1703,
      "step": 1850
    },
    {
      "epoch": 1.062857142857143,
      "grad_norm": 3.59375,
      "learning_rate": 0.00019,
      "loss": 2.132,
      "step": 1860
    },
    {
      "epoch": 1.0685714285714285,
      "grad_norm": 5.375,
      "learning_rate": 0.00018833333333333332,
      "loss": 2.5562,
      "step": 1870
    },
    {
      "epoch": 1.0742857142857143,
      "grad_norm": 4.625,
      "learning_rate": 0.0001866666666666667,
      "loss": 2.0742,
      "step": 1880
    },
    {
      "epoch": 1.08,
      "grad_norm": 5.46875,
      "learning_rate": 0.000185,
      "loss": 2.6172,
      "step": 1890
    },
    {
      "epoch": 1.0857142857142856,
      "grad_norm": 4.71875,
      "learning_rate": 0.00018333333333333334,
      "loss": 2.6695,
      "step": 1900
    },
    {
      "epoch": 1.0914285714285714,
      "grad_norm": 2.984375,
      "learning_rate": 0.00018166666666666667,
      "loss": 2.6109,
      "step": 1910
    },
    {
      "epoch": 1.0971428571428572,
      "grad_norm": 16.875,
      "learning_rate": 0.00017999999999999998,
      "loss": 2.5828,
      "step": 1920
    },
    {
      "epoch": 1.1028571428571428,
      "grad_norm": 8.625,
      "learning_rate": 0.00017833333333333335,
      "loss": 2.3164,
      "step": 1930
    },
    {
      "epoch": 1.1085714285714285,
      "grad_norm": 2.71875,
      "learning_rate": 0.00017666666666666666,
      "loss": 2.5469,
      "step": 1940
    },
    {
      "epoch": 1.1142857142857143,
      "grad_norm": 3.140625,
      "learning_rate": 0.000175,
      "loss": 2.5219,
      "step": 1950
    },
    {
      "epoch": 1.12,
      "grad_norm": 9.875,
      "learning_rate": 0.00017333333333333334,
      "loss": 2.5441,
      "step": 1960
    },
    {
      "epoch": 1.1257142857142857,
      "grad_norm": 2.859375,
      "learning_rate": 0.00017166666666666667,
      "loss": 2.4445,
      "step": 1970
    },
    {
      "epoch": 1.1314285714285715,
      "grad_norm": 2.515625,
      "learning_rate": 0.00017,
      "loss": 2.4516,
      "step": 1980
    },
    {
      "epoch": 1.1371428571428572,
      "grad_norm": 4.34375,
      "learning_rate": 0.00016833333333333335,
      "loss": 2.4945,
      "step": 1990
    },
    {
      "epoch": 1.1428571428571428,
      "grad_norm": 6.8125,
      "learning_rate": 0.00016666666666666666,
      "loss": 2.825,
      "step": 2000
    },
    {
      "epoch": 1.1428571428571428,
      "eval_bleu-4": 0.019744139461000943,
      "eval_rouge-1": 45.954240000000006,
      "eval_rouge-2": 36.633678,
      "eval_rouge-l": 5.972782,
      "eval_runtime": 2758.7885,
      "eval_samples_per_second": 0.018,
      "eval_steps_per_second": 0.009,
      "step": 2000
    },
    {
      "epoch": 1.1485714285714286,
      "grad_norm": 5.5,
      "learning_rate": 0.000165,
      "loss": 2.6234,
      "step": 2010
    },
    {
      "epoch": 1.1542857142857144,
      "grad_norm": 1.9296875,
      "learning_rate": 0.00016333333333333334,
      "loss": 2.6961,
      "step": 2020
    },
    {
      "epoch": 1.16,
      "grad_norm": 4.84375,
      "learning_rate": 0.00016166666666666665,
      "loss": 2.3734,
      "step": 2030
    },
    {
      "epoch": 1.1657142857142857,
      "grad_norm": 7.75,
      "learning_rate": 0.00016,
      "loss": 2.2352,
      "step": 2040
    },
    {
      "epoch": 1.1714285714285715,
      "grad_norm": 3.5,
      "learning_rate": 0.00015833333333333332,
      "loss": 2.8086,
      "step": 2050
    },
    {
      "epoch": 1.177142857142857,
      "grad_norm": 4.59375,
      "learning_rate": 0.0001566666666666667,
      "loss": 2.3289,
      "step": 2060
    },
    {
      "epoch": 1.1828571428571428,
      "grad_norm": 2.140625,
      "learning_rate": 0.000155,
      "loss": 2.2809,
      "step": 2070
    },
    {
      "epoch": 1.1885714285714286,
      "grad_norm": 9.75,
      "learning_rate": 0.00015333333333333334,
      "loss": 2.3996,
      "step": 2080
    },
    {
      "epoch": 1.1942857142857144,
      "grad_norm": 3.078125,
      "learning_rate": 0.00015166666666666668,
      "loss": 2.6211,
      "step": 2090
    },
    {
      "epoch": 1.2,
      "grad_norm": 2.09375,
      "learning_rate": 0.00015,
      "loss": 2.4516,
      "step": 2100
    },
    {
      "epoch": 1.2057142857142857,
      "grad_norm": 12.125,
      "learning_rate": 0.00014833333333333335,
      "loss": 2.2895,
      "step": 2110
    },
    {
      "epoch": 1.2114285714285715,
      "grad_norm": 7.90625,
      "learning_rate": 0.00014666666666666666,
      "loss": 2.4645,
      "step": 2120
    },
    {
      "epoch": 1.217142857142857,
      "grad_norm": 2.90625,
      "learning_rate": 0.000145,
      "loss": 2.1938,
      "step": 2130
    },
    {
      "epoch": 1.2228571428571429,
      "grad_norm": 3.5625,
      "learning_rate": 0.00014333333333333334,
      "loss": 2.5789,
      "step": 2140
    },
    {
      "epoch": 1.2285714285714286,
      "grad_norm": 3.53125,
      "learning_rate": 0.00014166666666666668,
      "loss": 2.7227,
      "step": 2150
    },
    {
      "epoch": 1.2342857142857142,
      "grad_norm": 7.25,
      "learning_rate": 0.00014000000000000001,
      "loss": 3.0297,
      "step": 2160
    },
    {
      "epoch": 1.24,
      "grad_norm": 11.125,
      "learning_rate": 0.00013833333333333333,
      "loss": 2.8516,
      "step": 2170
    },
    {
      "epoch": 1.2457142857142858,
      "grad_norm": 5.96875,
      "learning_rate": 0.00013666666666666666,
      "loss": 2.2891,
      "step": 2180
    },
    {
      "epoch": 1.2514285714285713,
      "grad_norm": 4.84375,
      "learning_rate": 0.000135,
      "loss": 2.668,
      "step": 2190
    },
    {
      "epoch": 1.2571428571428571,
      "grad_norm": 2.40625,
      "learning_rate": 0.00013333333333333334,
      "loss": 2.1388,
      "step": 2200
    },
    {
      "epoch": 1.262857142857143,
      "grad_norm": 3.234375,
      "learning_rate": 0.00013166666666666665,
      "loss": 2.4547,
      "step": 2210
    },
    {
      "epoch": 1.2685714285714287,
      "grad_norm": 6.5,
      "learning_rate": 0.00013000000000000002,
      "loss": 2.4086,
      "step": 2220
    },
    {
      "epoch": 1.2742857142857142,
      "grad_norm": 1.6953125,
      "learning_rate": 0.00012833333333333333,
      "loss": 2.8281,
      "step": 2230
    },
    {
      "epoch": 1.28,
      "grad_norm": 6.625,
      "learning_rate": 0.0001266666666666667,
      "loss": 2.3508,
      "step": 2240
    },
    {
      "epoch": 1.2857142857142856,
      "grad_norm": 7.875,
      "learning_rate": 0.000125,
      "loss": 3.0875,
      "step": 2250
    },
    {
      "epoch": 1.2914285714285714,
      "grad_norm": 5.625,
      "learning_rate": 0.00012333333333333334,
      "loss": 1.9508,
      "step": 2260
    },
    {
      "epoch": 1.2971428571428572,
      "grad_norm": 2.640625,
      "learning_rate": 0.00012166666666666668,
      "loss": 2.5449,
      "step": 2270
    },
    {
      "epoch": 1.302857142857143,
      "grad_norm": 2.5625,
      "learning_rate": 0.00012,
      "loss": 2.5191,
      "step": 2280
    },
    {
      "epoch": 1.3085714285714285,
      "grad_norm": 8.125,
      "learning_rate": 0.00011833333333333334,
      "loss": 2.4375,
      "step": 2290
    },
    {
      "epoch": 1.3142857142857143,
      "grad_norm": 10.8125,
      "learning_rate": 0.00011666666666666667,
      "loss": 2.166,
      "step": 2300
    },
    {
      "epoch": 1.32,
      "grad_norm": 7.1875,
      "learning_rate": 0.000115,
      "loss": 2.2488,
      "step": 2310
    },
    {
      "epoch": 1.3257142857142856,
      "grad_norm": 2.40625,
      "learning_rate": 0.00011333333333333333,
      "loss": 2.5023,
      "step": 2320
    },
    {
      "epoch": 1.3314285714285714,
      "grad_norm": 3.6875,
      "learning_rate": 0.00011166666666666667,
      "loss": 2.2027,
      "step": 2330
    },
    {
      "epoch": 1.3371428571428572,
      "grad_norm": 2.109375,
      "learning_rate": 0.00011,
      "loss": 2.2242,
      "step": 2340
    },
    {
      "epoch": 1.342857142857143,
      "grad_norm": 4.71875,
      "learning_rate": 0.00010833333333333334,
      "loss": 2.198,
      "step": 2350
    },
    {
      "epoch": 1.3485714285714285,
      "grad_norm": 2.25,
      "learning_rate": 0.00010666666666666668,
      "loss": 2.7109,
      "step": 2360
    },
    {
      "epoch": 1.3542857142857143,
      "grad_norm": 4.625,
      "learning_rate": 0.000105,
      "loss": 2.4562,
      "step": 2370
    },
    {
      "epoch": 1.3599999999999999,
      "grad_norm": 10.9375,
      "learning_rate": 0.00010333333333333333,
      "loss": 2.5273,
      "step": 2380
    },
    {
      "epoch": 1.3657142857142857,
      "grad_norm": 6.25,
      "learning_rate": 0.00010166666666666667,
      "loss": 2.2445,
      "step": 2390
    },
    {
      "epoch": 1.3714285714285714,
      "grad_norm": 2.234375,
      "learning_rate": 0.0001,
      "loss": 2.6484,
      "step": 2400
    },
    {
      "epoch": 1.3771428571428572,
      "grad_norm": 5.59375,
      "learning_rate": 9.833333333333333e-05,
      "loss": 2.6344,
      "step": 2410
    },
    {
      "epoch": 1.3828571428571428,
      "grad_norm": 2.21875,
      "learning_rate": 9.666666666666667e-05,
      "loss": 2.2563,
      "step": 2420
    },
    {
      "epoch": 1.3885714285714286,
      "grad_norm": 6.125,
      "learning_rate": 9.5e-05,
      "loss": 2.3129,
      "step": 2430
    },
    {
      "epoch": 1.3942857142857144,
      "grad_norm": 3.59375,
      "learning_rate": 9.333333333333334e-05,
      "loss": 2.6391,
      "step": 2440
    },
    {
      "epoch": 1.4,
      "grad_norm": 3.234375,
      "learning_rate": 9.166666666666667e-05,
      "loss": 2.7883,
      "step": 2450
    },
    {
      "epoch": 1.4057142857142857,
      "grad_norm": 4.96875,
      "learning_rate": 8.999999999999999e-05,
      "loss": 2.1561,
      "step": 2460
    },
    {
      "epoch": 1.4114285714285715,
      "grad_norm": 5.09375,
      "learning_rate": 8.833333333333333e-05,
      "loss": 2.3547,
      "step": 2470
    },
    {
      "epoch": 1.4171428571428573,
      "grad_norm": 3.640625,
      "learning_rate": 8.666666666666667e-05,
      "loss": 2.4969,
      "step": 2480
    },
    {
      "epoch": 1.4228571428571428,
      "grad_norm": 5.6875,
      "learning_rate": 8.5e-05,
      "loss": 2.7047,
      "step": 2490
    },
    {
      "epoch": 1.4285714285714286,
      "grad_norm": 3.6875,
      "learning_rate": 8.333333333333333e-05,
      "loss": 2.3102,
      "step": 2500
    },
    {
      "epoch": 1.4285714285714286,
      "eval_bleu-4": 0.03067109853504037,
      "eval_rouge-1": 40.619274,
      "eval_rouge-2": 30.418246,
      "eval_rouge-l": 9.136251999999999,
      "eval_runtime": 2759.1951,
      "eval_samples_per_second": 0.018,
      "eval_steps_per_second": 0.009,
      "step": 2500
    },
    {
      "epoch": 1.4342857142857142,
      "grad_norm": 2.359375,
      "learning_rate": 8.166666666666667e-05,
      "loss": 2.4992,
      "step": 2510
    },
    {
      "epoch": 1.44,
      "grad_norm": 3.328125,
      "learning_rate": 8e-05,
      "loss": 2.3003,
      "step": 2520
    },
    {
      "epoch": 1.4457142857142857,
      "grad_norm": 31.625,
      "learning_rate": 7.833333333333334e-05,
      "loss": 2.4434,
      "step": 2530
    },
    {
      "epoch": 1.4514285714285715,
      "grad_norm": 2.609375,
      "learning_rate": 7.666666666666667e-05,
      "loss": 2.3578,
      "step": 2540
    },
    {
      "epoch": 1.457142857142857,
      "grad_norm": 5.375,
      "learning_rate": 7.5e-05,
      "loss": 2.2645,
      "step": 2550
    },
    {
      "epoch": 1.4628571428571429,
      "grad_norm": 5.21875,
      "learning_rate": 7.333333333333333e-05,
      "loss": 2.5414,
      "step": 2560
    },
    {
      "epoch": 1.4685714285714286,
      "grad_norm": 2.125,
      "learning_rate": 7.166666666666667e-05,
      "loss": 2.5346,
      "step": 2570
    },
    {
      "epoch": 1.4742857142857142,
      "grad_norm": 7.5,
      "learning_rate": 7.000000000000001e-05,
      "loss": 2.5383,
      "step": 2580
    },
    {
      "epoch": 1.48,
      "grad_norm": 3.75,
      "learning_rate": 6.833333333333333e-05,
      "loss": 2.4773,
      "step": 2590
    },
    {
      "epoch": 1.4857142857142858,
      "grad_norm": 5.40625,
      "learning_rate": 6.666666666666667e-05,
      "loss": 2.035,
      "step": 2600
    },
    {
      "epoch": 1.4914285714285715,
      "grad_norm": 2.90625,
      "learning_rate": 6.500000000000001e-05,
      "loss": 2.5633,
      "step": 2610
    },
    {
      "epoch": 1.497142857142857,
      "grad_norm": 6.625,
      "learning_rate": 6.333333333333335e-05,
      "loss": 2.4014,
      "step": 2620
    },
    {
      "epoch": 1.502857142857143,
      "grad_norm": 8.6875,
      "learning_rate": 6.166666666666667e-05,
      "loss": 2.8062,
      "step": 2630
    },
    {
      "epoch": 1.5085714285714285,
      "grad_norm": 4.71875,
      "learning_rate": 6e-05,
      "loss": 2.5059,
      "step": 2640
    },
    {
      "epoch": 1.5142857142857142,
      "grad_norm": 2.25,
      "learning_rate": 5.833333333333333e-05,
      "loss": 2.4398,
      "step": 2650
    },
    {
      "epoch": 1.52,
      "grad_norm": 3.171875,
      "learning_rate": 5.6666666666666664e-05,
      "loss": 2.5656,
      "step": 2660
    },
    {
      "epoch": 1.5257142857142858,
      "grad_norm": 6.09375,
      "learning_rate": 5.5e-05,
      "loss": 2.0332,
      "step": 2670
    },
    {
      "epoch": 1.5314285714285716,
      "grad_norm": 3.765625,
      "learning_rate": 5.333333333333334e-05,
      "loss": 2.7422,
      "step": 2680
    },
    {
      "epoch": 1.5371428571428571,
      "grad_norm": 5.3125,
      "learning_rate": 5.1666666666666664e-05,
      "loss": 2.4086,
      "step": 2690
    },
    {
      "epoch": 1.5428571428571427,
      "grad_norm": 5.46875,
      "learning_rate": 5e-05,
      "loss": 2.4555,
      "step": 2700
    },
    {
      "epoch": 1.5485714285714285,
      "grad_norm": 7.53125,
      "learning_rate": 4.8333333333333334e-05,
      "loss": 2.0867,
      "step": 2710
    },
    {
      "epoch": 1.5542857142857143,
      "grad_norm": 3.046875,
      "learning_rate": 4.666666666666667e-05,
      "loss": 2.675,
      "step": 2720
    },
    {
      "epoch": 1.56,
      "grad_norm": 3.53125,
      "learning_rate": 4.4999999999999996e-05,
      "loss": 2.3438,
      "step": 2730
    },
    {
      "epoch": 1.5657142857142858,
      "grad_norm": 4.84375,
      "learning_rate": 4.3333333333333334e-05,
      "loss": 2.3961,
      "step": 2740
    },
    {
      "epoch": 1.5714285714285714,
      "grad_norm": 8.5,
      "learning_rate": 4.1666666666666665e-05,
      "loss": 2.7891,
      "step": 2750
    },
    {
      "epoch": 1.5771428571428572,
      "grad_norm": 4.625,
      "learning_rate": 4e-05,
      "loss": 2.4105,
      "step": 2760
    },
    {
      "epoch": 1.5828571428571427,
      "grad_norm": 5.5625,
      "learning_rate": 3.8333333333333334e-05,
      "loss": 2.5422,
      "step": 2770
    },
    {
      "epoch": 1.5885714285714285,
      "grad_norm": 3.71875,
      "learning_rate": 3.6666666666666666e-05,
      "loss": 2.5641,
      "step": 2780
    },
    {
      "epoch": 1.5942857142857143,
      "grad_norm": 3.671875,
      "learning_rate": 3.5000000000000004e-05,
      "loss": 2.5961,
      "step": 2790
    },
    {
      "epoch": 1.6,
      "grad_norm": 1.90625,
      "learning_rate": 3.3333333333333335e-05,
      "loss": 2.4711,
      "step": 2800
    },
    {
      "epoch": 1.6057142857142859,
      "grad_norm": 1.8359375,
      "learning_rate": 3.166666666666667e-05,
      "loss": 2.3312,
      "step": 2810
    },
    {
      "epoch": 1.6114285714285714,
      "grad_norm": 6.4375,
      "learning_rate": 3e-05,
      "loss": 2.3301,
      "step": 2820
    },
    {
      "epoch": 1.617142857142857,
      "grad_norm": 4.78125,
      "learning_rate": 2.8333333333333332e-05,
      "loss": 2.6031,
      "step": 2830
    },
    {
      "epoch": 1.6228571428571428,
      "grad_norm": 11.875,
      "learning_rate": 2.666666666666667e-05,
      "loss": 2.7766,
      "step": 2840
    },
    {
      "epoch": 1.6285714285714286,
      "grad_norm": 7.90625,
      "learning_rate": 2.5e-05,
      "loss": 2.3076,
      "step": 2850
    },
    {
      "epoch": 1.6342857142857143,
      "grad_norm": 6.53125,
      "learning_rate": 2.3333333333333336e-05,
      "loss": 2.5273,
      "step": 2860
    },
    {
      "epoch": 1.6400000000000001,
      "grad_norm": 3.0625,
      "learning_rate": 2.1666666666666667e-05,
      "loss": 2.3016,
      "step": 2870
    },
    {
      "epoch": 1.6457142857142857,
      "grad_norm": 1.609375,
      "learning_rate": 2e-05,
      "loss": 2.5375,
      "step": 2880
    },
    {
      "epoch": 1.6514285714285715,
      "grad_norm": 9.1875,
      "learning_rate": 1.8333333333333333e-05,
      "loss": 2.6109,
      "step": 2890
    },
    {
      "epoch": 1.657142857142857,
      "grad_norm": 3.03125,
      "learning_rate": 1.6666666666666667e-05,
      "loss": 2.8758,
      "step": 2900
    },
    {
      "epoch": 1.6628571428571428,
      "grad_norm": 8.125,
      "learning_rate": 1.5e-05,
      "loss": 2.4953,
      "step": 2910
    },
    {
      "epoch": 1.6685714285714286,
      "grad_norm": 10.4375,
      "learning_rate": 1.3333333333333335e-05,
      "loss": 1.9342,
      "step": 2920
    },
    {
      "epoch": 1.6742857142857144,
      "grad_norm": 5.4375,
      "learning_rate": 1.1666666666666668e-05,
      "loss": 2.6148,
      "step": 2930
    },
    {
      "epoch": 1.6800000000000002,
      "grad_norm": 4.6875,
      "learning_rate": 1e-05,
      "loss": 2.582,
      "step": 2940
    },
    {
      "epoch": 1.6857142857142857,
      "grad_norm": 15.5,
      "learning_rate": 8.333333333333334e-06,
      "loss": 2.9609,
      "step": 2950
    },
    {
      "epoch": 1.6914285714285713,
      "grad_norm": 7.34375,
      "learning_rate": 6.6666666666666675e-06,
      "loss": 1.9114,
      "step": 2960
    },
    {
      "epoch": 1.697142857142857,
      "grad_norm": 5.09375,
      "learning_rate": 5e-06,
      "loss": 2.3836,
      "step": 2970
    },
    {
      "epoch": 1.7028571428571428,
      "grad_norm": 3.03125,
      "learning_rate": 3.3333333333333337e-06,
      "loss": 2.4539,
      "step": 2980
    },
    {
      "epoch": 1.7085714285714286,
      "grad_norm": 7.03125,
      "learning_rate": 1.6666666666666669e-06,
      "loss": 2.3227,
      "step": 2990
    },
    {
      "epoch": 1.7142857142857144,
      "grad_norm": 3.15625,
      "learning_rate": 0.0,
      "loss": 2.3969,
      "step": 3000
    },
    {
      "epoch": 1.7142857142857144,
      "eval_bleu-4": 0.027456557344468027,
      "eval_rouge-1": 41.667767999999995,
      "eval_rouge-2": 31.516432,
      "eval_rouge-l": 8.914804,
      "eval_runtime": 2759.1015,
      "eval_samples_per_second": 0.018,
      "eval_steps_per_second": 0.009,
      "step": 3000
    }
  ],
  "logging_steps": 10,
  "max_steps": 3000,
  "num_input_tokens_seen": 0,
  "num_train_epochs": 2,
  "save_steps": 500,
  "total_flos": 4.125805653757133e+16,
  "train_batch_size": 1,
  "trial_name": null,
  "trial_params": null
}
